math/test_lfsr/coco/dump.vcd
$date
	Tue Feb 14 17:18:30 2017
$end
$version
	Icarus Verilog
$end
$timescale
	1ps
$end
$scope module dither_nb $end
$var wire 1 ! c $end
$var wire 25 " o [24:0] $end
$var wire 1 # dither $end
$var reg 1 $ ce $end
$var reg 13 % d1 [12:0] $end
$var reg 14 & d2 [13:0] $end
$var reg 15 ' d3 [14:0] $end
$var reg 16 ( d4 [15:0] $end
$var reg 25 ) d5 [24:0] $end
$var reg 25 * d6 [24:0] $end
$var reg 25 + d7 [24:0] $end
$var reg 25 , d8 [24:0] $end
$var reg 13 - i [12:0] $end
$var reg 14 . r1 [13:0] $end
$var reg 15 / r2 [14:0] $end
$var reg 16 0 r3 [15:0] $end
$var reg 17 1 r4 [16:0] $end
$var reg 4 2 state [3:0] $end
$scope module dithergen $end
$var wire 1 ! c $end
$var wire 1 # o $end
$var reg 63 3 lfsr [62:0] $end
$upscope $end
$upscope $end
$enddefinitions $end
#0
$dumpvars
b101100011111101101100001100110000111111111111111111111111111111 3
b1 2
b0 1
b0 0
b0 /
b0 .
b1000000000000 -
b0 ,
b0 +
b0 *
b0 )
b0 (
b0 '
b0 &
b0 %
1$
1#
b0 "
1!
$end
#5000
0!
#10000
0#
b11000000000000 .
b1000000000000 %
b1100000000000 -
0$
b10 2
b1000000000000000000000000000000011000111111011011000011001100 3
1!
#15000
0!
#20000
b101001000001101101000101010100010000000000000000000000000000 3
b110000000000 -
b11 2
1!
#25000
0!
#30000
1#
b11000000000 -
b100 2
b110000000000000000000000000000001010010000011011010001010101 3
1!
#35000
0!
#40000
0#
b11110110000101101110011111111001100000000000000000000000000 3
b1001100000000 -
b101 2
1!
#45000
0!
#50000
1#
b100110000000 -
b110 2
b101010100000000000000000000000000000111101100001011011100111111 3
1!
#55000
0!
#60000
0#
b1000110100011101100101000000010101000000000000000000000000 3
b1010011000000 -
b111 2
1!
#65000
0!
#70000
b101001100000 -
b1000 2
b111111000000000000000000000000000010001101000111011001010000 3
1!
#75000
0!
#80000
b110010111001001101011110000001111110000000000000000000000 3
b10100110000 -
b1001 2
1!
#85000
0!
#90000
b1010011000 -
b1010 2
b10000010000000000000000000000000001100101110010011010111100 3
1!
#95000
0!
#100000
b10101110010110101111000100000100000100000000000000000000 3
b101001100 -
b1011 2
1!
#105000
0!
#110000
1#
b10100110 -
b1100 2
b1100001100000000000000000000000000101011100101101011110001 3
1!
#115000
0!
#120000
0#
b1111100101110111100010011000011000011000000000000000000 3
b1000001010011 -
b1101 2
1!
#125000
0!
#130000
b100000101001 -
b1110 2
b101000101000101000000000000000000000000011111001011101111000100 3
1!
#135000
0!
#140000
b100001011100110001001101010001010001010000000000000000 3
b10000010100 -
b1111 2
1!
#145000
0!
#150000
1#
b1000001010 -
b0 2
b11110011110011110000000000000000000000001000010111001100010011 3
1!
#155000
0!
#160000
0#
b11000111001010100110101111100111100111100000000000000 3
b1000100000101 -
1$
b1 2
1!
#165000
0!
#170000
1#
b111000000000000 /
b11000000000000 &
b100000101 .
b1000100000101 %
b100010000010 -
0$
b10 2
b10000101000101000100000000000000000000000110001110010101001101 3
1!
#175000
0!
#180000
0#
b1010010010111111010111100001010001010001000000000000 3
b1010001000001 -
b11 2
1!
#185000
0!
#190000
1#
b101000100000 -
b100 2
b100100011110011110011000000000000000000000010100100101111110101 3
1!
#195000
0!
#200000
0#
b111101101110000011110001000111100111100110000000000 3
b1010100010000 -
b101 2
1!
#205000
0!
#210000
1#
b101010001000 -
b110 2
b110011001000101000101010000000000000000000001111011011100000111 3
1!
#215000
0!
#220000
0#
b10001101100100001000100110010001010001010100000000 3
b1010101000100 -
b111 2
1!
#225000
0!
#230000
b101010100010 -
b1000 2
b1101010110011110011111100000000000000000000100011011001000010 3
1!
#235000
0!
#240000
b1100101101011000110011010101100111100111111000000 3
b10101010001 -
b1001 2
1!
#245000
0!
#250000
1#
b1010101000 -
b1010 2
b110101111110101000101000001000000000000000000011001011010110001 3
1!
#255000
0!
#260000
0#
b101011101111010010101011111101010001010000010000 3
b1000101010100 -
b1011 2
1!
#265000
0!
#270000
b100010101010 -
b1100 2
b111111100000111110011110000110000000000000000001010111011110100 3
1!
#275000
0!
#280000
b11111001100011101111111000001111100111100001100 3
b10001010101 -
b1101 2
1!
#285000
0!
#290000
1#
b1000101010 -
b1110 2
b10000001000010000101000100010100000000000000000111110011000111 3
1!
#295000
0!
#300000
b1000010101001001100000010000100001010001000101 3
b1000100010101 -
b1111 2
1!
#305000
0!
#310000
0#
b1100010001010 -
b0 2
b10100000110001100011110011001111000000000000000010000101010010 3
1!
#315000
0!
#320000
1#
b101000000000000000110001111110110101000001100011000111100110011 3
b110001000101 -
1$
b1 2
1!
#325000
0!
#330000
b1111000000000000 0
b111000000000000 '
b1000100000101 /
b100000101 &
b1101101000000 .
b110001000101 %
b1011000100010 -
0$
b10 2
b111111000010100101001000101010100010000000000000001100011111101 3
1!
#335000
0!
#340000
b110000000000000010100100000110111110000101001010010001010101 3
b1101100010001 -
b11 2
1!
#345000
0!
#350000
b1110110001000 -
b100 2
b111000010001111011110110011111111001100000000000000101001000001 3
1!
#355000
0!
#360000
b101010100000000000001111011000010110000100011110111101100111111 3
b1111011000100 -
b101 2
1!
#365000
0!
#370000
0#
b1111101100010 -
b110 2
b111010001100100011000110101000000010101000000000000011110110000 3
1!
#375000
0!
#380000
b111111000000000000100011010001110100011001000110001101010000 3
b111110110001 -
b111 2
1!
#385000
0!
#390000
b11111011000 -
b1000 2
b10011100101011001010010111110000001111110000000000001000110100 3
1!
#395000
0!
#400000
b10000010000000000011001011100100111001010110010100101111100 3
b1111101100 -
b1001 2
1!
#405000
0!
#410000
1#
b111110110 -
b1010 2
b1101001011111010111101110000100000100000100000000000110010111 3
1!
#415000
0!
#420000
b1100001100000000001010111001011010010111110101111011100001 3
b1000011111011 -
b1011 2
1!
#425000
0!
#430000
0#
b1100001111101 -
b1100 2
b11101110111000011110001100100011000011000011000000000010101110 3
1!
#435000
0!
#440000
b101000101000101000000000111110010111011101110000111100011001000 3
b110000111110 -
b1101 2
1!
#445000
0!
#450000
b11000011111 -
b1110 2
b111001100110010001000100101011001010001010001010000000001111100 3
1!
#455000
0!
#460000
b11110011110011110000000010000101110011001100100010001001010110 3
b1100001111 -
b1111 2
1!
#465000
0!
#470000
1#
b110000111 -
b0 2
b10010101010101100110011011111010111100111100111100000000100001 3
1!
#475000
0!
#480000
0#
b111000101000101000100000001100011100101010101011001100110111110 3
b1000011000011 -
1$
b1 2
1!
#485000
0!
#490000
b11111000000000000 1
b1111000000000000 (
b10000100000101 0
b1000100000101 '
b1101000111011 /
b1101101000000 &
b10010001111110 .
b1000011000011 %
b100001100001 -
0$
b10 2
b100101111111111101010101011000011110001010001010001000000011000 3
1!
#495000
0!
#500000
b100010011110011110011000000101001001011111111111010101010110000 3
b10000110000 -
b11 2
1!
#505000
0!
#510000
b1000011000 -
b100 2
b11011100000000001111111111010001000100111100111100110000001010 3
1!
#515000
0!
#520000
b11001101000101000101010000011110110111000000000011111111110100 3
b100001100 -
b101 2
1!
#525000
0!
#530000
1#
b10000110 -
b110 2
b111011001000000000100000000011100110011010001010001010100000111 3
1!
#535000
0!
#540000
b1010101110011110011111100001000110110010000000001000000000111 3
b1000001000011 -
b111 2
1!
#545000
0!
#550000
0#
b1100000100001 -
b1000 2
b1011010110000000011000000001001010101011100111100111111000010 3
1!
#555000
0!
#560000
b11111111100101000101000001000110010110101100000000110000000010 3
b110000010000 -
b1001 2
1!
#565000
0!
#570000
1#
b11000001000 -
b1010 2
b110111011110100000001010000000110111111111001010001010000010001 3
1!
#575000
0!
#580000
b111000000001011110011110000110010101110111101000000010100000001 3
b1001100000100 -
b1011 2
1!
#585000
0!
#590000
0#
b1100110000010 -
b1100 2
b111110011000111000000111100000010110000000010111100111100001100 3
1!
#595000
0!
#600000
b111010000000111000101000100010101111100110001110000001111000000 3
b110011000001 -
b1101 2
1!
#605000
0!
#610000
1#
b11001100000 -
b1110 2
b10000101010010010000010001000001110100000001110001010001000101 3
1!
#615000
0!
#620000
0#
b10011100000010010011110011001111100001010100100100000100010000 3
b1001100110000 -
b1111 2
1!
#625000
0!
#630000
1#
b100110011000 -
b0 2
b100100011111101101100001100110000100111000000100100111100110011 3
1!
#635000
0!
#640000
0#
b1101001000001101101000101010100001000111111011011000011001100 3
b1010011001100 -
1$
b1 2
1!
#645000
0!
#650000
1#
b1111111111111000000000000 )
b11000100000101 1
b10000100000101 (
b100100110110 0
b1101000111011 '
b100100100111110 /
b10010001111110 &
b10000001001 .
b1010011001100 %
b101001100110 -
0$
b10 2
b11001000001101101000101010100011010010000011011010001010101 3
1!
#655000
0!
#660000
b101110110000101101110011111111000110010000011011010001010101 3
b1111111111111000000000000 *
b1010100110011 -
b11 2
1!
#665000
0!
#670000
b1111111111111000000000000 +
b1111111111110000000000000 *
b1101010011001 -
b100 2
b101001010110000101101110011111111001011101100001011011100111111 3
1!
#675000
0!
#680000
b101011100110100011101100101000000010010101100001011011100111111 3
b1111111111111000000000000 "
b1111111111111000000000000 ,
b1111111111101000000000000 +
b1111111111101000000000000 *
b1110101001100 -
b101 2
1!
#685000
0!
#690000
0#
b1111111111100000000000000 "
b1111111111100000000000000 ,
b1111111111010000000000000 +
b1111111111100000000000000 *
b1111010100110 -
b110 2
b110111110100011101100101000000010111001101000111011001010000 3
1!
#695000
0!
#700000
b111001010111001001101011110000001101111101000111011001010000 3
b1111111110110000000000000 "
b1111111110110000000000000 ,
b1111111110110000000000000 +
b1111111111011000000000000 *
b111101010011 -
b111 2
1!
#705000
0!
#710000
b1111111101100000000000000 "
b1111111101100000000000000 ,
b1111111110001000000000000 +
b1111111111010000000000000 *
b11110101001 -
b1000 2
b10110000111001001101011110000001110010101110010011010111100 3
1!
#715000
0!
#720000
b10010111110010110101111000100000101100001110010011010111100 3
b1111111011101000000000000 "
b1111111011101000000000000 ,
b1111111101011000000000000 +
b1111111111001000000000000 *
b1111010100 -
b1001 2
1!
#725000
0!
#730000
1#
b1111111001000000000000000 "
b1111111001000000000000000 ,
b1111111100100000000000000 +
b1111111111000000000000000 *
b111101010 -
b1010 2
b1110100010010110101111000100000100101111100101101011110001 3
1!
#735000
0!
#740000
b1101110000101110111100010011000011101000100101101011110001 3
b1111110101100000000000000 "
b1111110101100000000000000 ,
b1111111011100000000000000 +
b1111111110111000000000000 *
b1000011110101 -
b1011 2
1!
#745000
0!
#750000
0#
b1111110001000000000000000 "
b1111110001000000000000000 ,
b1111111010011000000000000 +
b1111111110110000000000000 *
b1100001111010 -
b1100 2
b101000100111001101110111100010011000011011100001011101111000100 3
1!
#755000
0!
#760000
b101000101100100011100110001001101010001001110011011101111000100 3
b1111101011011000000000000 "
b1111101011011000000000000 ,
b1111111001001000000000000 +
b1111111110101000000000000 *
b110000111101 -
b1101 2
1!
#765000
0!
#770000
1#
b1111100100100000000000000 "
b1111100100100000000000000 ,
b1111110111110000000000000 +
b1111111110100000000000000 *
b11000011110 -
b1110 2
b11110011010010101100110001001101010001011001000111001100010011 3
1!
#775000
0!
#780000
b11110011101011001001010100110101111100110100101011001100010011 3
b1111011100010000000000000 "
b1111011100010000000000000 ,
b1111110110010000000000000 +
b1111111110011000000000000 *
b1001100001111 -
b1111 2
1!
#785000
0!
#790000
b1111010010100000000000000 "
b1111010010100000000000000 ,
b1111110100101000000000000 +
b1111111110010000000000000 *
b1100110000111 -
b0 2
b10000101011101111101010100110101111100111010110010010101001101 3
1!
#795000
0!
#800000
b10000101001111010110111111010111100001010111011111010101001101 3
b1111000111001000000000000 "
b1111000111001000000000000 ,
b1111110010111000000000000 +
b1111111110001000000000000 *
b1110011000011 -
1$
b1 2
1!
#805000
0!
#810000
b1110111010000000000000000 "
b1110111010000000000000000 ,
b1111110001000000000000000 +
b1111111110000000000000000 *
b10000100000101 )
b11110100000110001 1
b100100110110 (
b1010111100000011 0
b100100100111110 '
b1111110001011 /
b10000001001 &
b11111110111 .
b1110011000011 %
b1111001100001 -
0$
b10 2
b100100011111001100001111111010111100001010011110101101111110101 3
1!
#815000
0!
#820000
b100100011110100011110110000011110001000111110011000011111110101 3
b1110101011000000000000000 "
b1110101011000000000000000 ,
b1111101111000000000000000 +
b1111111110010000100000101 *
b1111100110000 -
b11 2
1!
#825000
0!
#830000
b1110011010000000000000000 "
b1110011010000000000000000 ,
b1111101101010000100000101 +
b1111111110100001000001010 *
b1111110011000 -
b100 2
b110011001000010101000100000011110001000111101000111101100000111 3
1!
#835000
0!
#840000
b110011001000111001000110100001000100110010000101010001000000111 3
b1110000111010000100000101 "
b1110000111010000100000101 ,
b1111101011110001100001111 +
b1111111110110001100001111 *
b1111111001100 -
b101 2
1!
#845000
0!
#850000
0#
b1101110011000010000010100 "
b1101110011000010000010100 ,
b1111101010100011000011110 +
b1111111111000010000010100 *
b1111111100110 -
b110 2
b1101010110001111110011000001000100110010001110010001101000010 3
1!
#855000
0!
#860000
b1101010110010010110010111000110011010101100011111100110000010 3
b1101011101100101000110010 "
b1101011101100101000110010 ,
b1111101001100101000110010 +
b1111111111010010100011001 *
b111111110011 -
b111 2
1!
#865000
0!
#870000
1#
b1101000111001010001100100 "
b1101000111001010001100100 ,
b1111101000110111101001011 +
b1111111111100011000011110 *
b11111111001 -
b1000 2
b110101111110100100000101010000110011010101100100101100101110001 3
1!
#875000
0!
#880000
b110101111110101101110101110010010101011111101001000001010100001 3
b1100110000000001110101111 "
b1100110000000001110101111 ,
b1111101000011010101101001 +
b1111111111110011100100011 *
b1001111111100 -
b1001 2
1!
#885000
0!
#890000
0#
b1100011000011100100011000 "
b1100011000011100100011000 ,
b1111101000001110010001100 +
b100000101000 *
b1100111111110 -
b1010 2
b111111100000111011000011111100010101011111101011011101011100100 3
1!
#895000
0!
#900000
b111111100000111101100111100101101111111000001110110000111111000 3
b1100000000101010110100100 "
b1100000000101010110100100 ,
b1111101000010010010110100 +
b10100100101101 *
b110011111111 -
b1011 2
1!
#905000
0!
#910000
1#
b1011101000111101001011000 "
b1011101000111101001011000 ,
b1111101000100110111100001 +
b100101000110010 *
b11001111111 -
b1100 2
b10000001000010011010001000001001111111000001111011001111001011 3
1!
#915000
0!
#920000
0#
b10000001000010001101010001011101100000010000100110100010000010 3
b1011010001100100000111001 "
b1011010001100100000111001 ,
b1111101001001100000010011 +
b110101100110111 *
b1001100111111 -
b1101 2
1!
#925000
0!
#930000
1#
b1010111010110000001001100 "
b1010111010110000001001100 ,
b1111101010000001101001010 +
b1000110000111100 *
b100110011111 -
b1110 2
b10100000110001101011100110000110100000010000100011010100010111 3
1!
#935000
0!
#940000
b111100000110001100101111100111001101000001100011010111001100001 3
b1010100100110001110010110 "
b1010100100110001110010110 ,
b1111101011000111110000110 +
b1010110101000001 *
b1010011001111 -
b1111 2
1!
#945000
0!
#950000
0#
b1010001111111001100011100 "
b1010001111111001100011100 ,
b1111101100011110011000111 +
b1100111001000110 *
b1101001100111 -
b0 2
b10111000010100101111001010100010111000001100011001011111001110 3
1!
#955000
0!
#960000
b111001000010100101011100001010010101110000101001011110010101000 3
b1001111100010111111100011 "
b1001111100010111111100011 ,
b1111101110000101100001101 +
b1110111101001011 *
b110100110011 -
1$
b1 2
1!
#965000
0!
#970000
b1001101010011101011110000 "
b1001101010011101011110000 ,
b1111101111111101001011000 +
b10001000001010000 *
b100100110110 )
b11010010111001101 1
b1010111100000011 (
b101011001001101 0
b1111110001011 '
b1111101110 /
b11111110111 &
b1000001110000 .
b110100110011 %
b11010011001 -
0$
b10 2
b111110010001111011100010111111001110010000101001010111000010100 3
1!
#975000
0!
#980000
b10010110001111011111001000111101111100100011110111000101111110 3
b1001011010011010101001000 "
b1001011010011010101001000 ,
b1111110010000101010101000 +
b10001100110000110 *
b1101001100 -
b11 2
1!
#985000
0!
#990000
1#
b1001001100011111111110000 "
b1001001100011111111110000 ,
b1111110100010010000101110 +
b10010001010111100 *
b110100110 -
b100 2
b10000101100100011001001110000010100101100011110111110010001111 3
1!
#995000
0!
#1000000
0#
b111101110100100011000010110010001100001011001000110010011100000 3
b1001000000110010000011110 "
b1001000000110010000011110 ,
b1111110110100011011101010 +
b10010101111110010 *
b1000011010011 -
b101 2
1!
#1005000
0!
#1010000
b1000110111010101100001000 "
b1000110111010101100001000 ,
b1111111000111001011011100 +
b10011010100101000 *
b100001101001 -
b110 2
b10100011101011001010110100100001111011101001000110000101100100 3
1!
#1015000
0!
#1020000
b10001100111011001010001110101100101000111010110010101101001000 3
b1000110000001110111100100 "
b1000110000001110111100100 ,
b1111111011010100000000100 +
b10011111001011110 *
b10000110100 -
b111 2
1!
#1025000
0!
#1030000
1#
b1000101011100010111101000 "
b1000101011100010111101000 ,
b1111111101110011001100010 +
b10100011110010100 *
b1000011010 -
b1000 2
b1111001001111010111110111011000100011001110110010100011101011 3
1!
#1035000
0!
#1040000
0#
b1100101010011010111100100111101011110010011110101111101110110 3
b1000101001010110001001010 "
b1000101001010110001001010 ,
b10110111110110 +
b10101000011001010 *
b1000100001101 -
b1001 2
1!
#1045000
0!
#1050000
1#
b1000101001101101001000000 "
b1000101001101101001000000 ,
b10111111011000000 +
b10101101000000000 *
b100010000110 -
b1010 2
b11100010110100011110000110011010011001010100110101111001001111 3
1!
#1055000
0!
#1060000
0#
b110101011111101011110001011010001111000101101000111100001100110 3
b1000101100101100100000000 "
b1000101100101100100000000 ,
b101101100011000000 +
b10110001100110110 *
b1010001000011 -
b1011 2
1!
#1065000
0!
#1070000
b1000110010011000111000000 "
b1000110010011000111000000 ,
b1000011101111110110 +
b10110110001101100 *
b101000100001 -
b1100 2
b10001001110111001000100010101011101010111111010111100010110100 3
1!
#1075000
0!
#1080000
b100111111000001111000100111011100100010011101110010001000101010 3
b1000111010110110110110110 "
b1000111010110110110110110 ,
b1011010100001100010 +
b10111010110100010 *
b10100010000 -
b1101 2
1!
#1085000
0!
#1090000
1#
b1001000110001011000011000 "
b1001000110001011000011000 ,
b1110001111000000100 +
b10111111011011000 *
b1010001000 -
b1110 2
b1100110100110010110011001111111001111110000011110001001110111 3
1!
#1095000
0!
#1100000
b101010000010000100010011010011001011001101001100101100110011111 3
b1001010100011010000011100 "
b1001010100011010000011100 ,
b10001001110011011100 +
b11000100000001110 *
b1000101000100 -
b1111 2
1!
#1105000
0!
#1110000
0#
b1001100101101000011111000 "
b1001100101101000011111000 ,
b10100010010011101010 +
b11001000101000100 *
b1100010100010 -
b0 2
b11101010111010101110101010100000010100000100001000100110100110 3
1!
#1115000
0!
#1120000
b111100001100011001101011101010111010101110101011101010101000 3
b1001111001111010111100010 "
b1001111001111010111100010 ,
b10111011011000101110 +
b11001101001111010 *
b110001010001 -
1$
b1 2
1!
#1125000
0!
#1130000
b1010010001010110000010000 "
b1010010001010110000010000 ,
b11010101000010101000 +
b11010001110110000 *
b1111111111010111100000011 )
b1010011101001010 1
b101011001001101 (
b1110010001100011 0
b1111101110 '
b100001111001 /
b1000001110000 &
b11111100011110 .
b110001010001 %
b11000101000 -
0$
b10 2
b111001111110011111100111111111000001111000011000110011010111010 3
1!
#1135000
0!
#1140000
b10001000101001010101111001111110011111100111111001111111110 3
b1010101011111110010111000 "
b1010101011111110010111000 ,
b11101111010001011000 +
b10101001010110011 *
b1100010100 -
b11 2
1!
#1145000
0!
#1150000
1#
b1011001001111000100010000 "
b1011001001111000100010000 ,
b100000100011100001011 +
b10000000110110110 *
b110001010 -
b100 2
b100010100000101000001010000000010000100010001010010101011110011 3
1!
#1155000
0!
#1160000
0#
b110001100110011110111111100010100000101000001010000010100000000 3
b1011101010011100000011011 "
b1011101010011100000011011 ,
b100010100100011000001 +
b1011000010111001 *
b1000011000101 -
b101 2
1!
#1165000
0!
#1170000
1#
b1100001101000000011011100 "
b1100001101000000011011100 ,
b100011111100101111010 +
b101111110111100 *
b100001100010 -
b110 2
b1111000011110000111100000001100011001100111101111111000101 3
1!
#1175000
0!
#1180000
0#
b10100101010101000110000001001111000011110000111100001111000000 3
b1100110000111101001010110 "
b1100110000111101001010110 ,
b100100101100100110110 +
b111010111111 *
b1010000110001 -
b111 2
1!
#1185000
0!
#1190000
1#
b1101010101101001110001100 "
b1101010101101001110001100 ,
b100100110011111110101 +
b1111111111011110111000010 *
b101000011000 -
b1000 2
b101000100010001000100010001000000101001010101010001100000010011 3
1!
#1195000
0!
#1200000
0#
b1111011111111110010100000110100010001000100010001000100010000 3
b1101111010011101110000001 "
b1101111010011101110000001 ,
b100100010010110110111 +
b1111111110110110011000101 *
b1010100001100 -
b1001 2
1!
#1205000
0!
#1210000
1#
b1110011110110000100111000 "
b1110011110110000100111000 ,
b100011001001001111100 +
b1111111110001101111001000 *
b101010000110 -
b1010 2
b110011001100110011001100110000011110111111111100101000001101 3
1!
#1215000
0!
#1220000
0#
b100011000000000101111000010111001100110011001100110011001100 3
b1111000001111001110110100 "
b1111000001111001110110100 ,
b100001010111001000100 +
b1111111101100101011001011 *
b1010101000011 -
b1011 2
1!
#1225000
0!
#1230000
1#
b1111100011010000111111000 "
b1111100011010000111111000 ,
b11110111100100001111 +
b1111111100111100111001110 *
b101010100001 -
b1100 2
b101010101010101010101010101010100001000110000000001011110000101 3
1!
#1235000
0!
#1240000
b11001010000000011100010001110010101010101010101010101010101 3
b10001101100000111 "
b10001101100000111 ,
b11011111001011011101 +
b1111111100010100011010001 *
b1010101010000 -
b1101 2
1!
#1245000
0!
#1250000
b11110000110111100100 "
b11110000110111100100 ,
b11000001101110101110 +
b1111111011101011111010100 *
b1101010101000 -
b1110 2
b110111111111111111111111111111111000110010100000000111000100011 3
1!
#1255000
0!
#1260000
b101001010111100000001001001100100101111111111111111111111111111 3
b110110010100110010010 "
b110110010100110010010 ,
b10011111001110000010 +
b1111111011000011011010111 *
b1110101010100 -
b1111 2
1!
#1265000
0!
#1270000
b1001010001110100010100 "
b1001010001110100010100 ,
b1110111101001011001 +
b1111111010011010111011010 *
b1111010101010 -
b0 2
b1110000000000000000000000000000010010101111000000010010011001 3
1!
#1275000
0!
#1280000
0#
b110111110001000000110110101011011100000000000000000000000000 3
b1011001001011101101101 "
b1011001001011101101101 ,
b1001011000000110011 +
b1111111001110010011011101 *
b1111101010101 -
1$
b1 2
1!
#1285000
0!
#1290000
b1100010100011110100000 "
b1100010100011110100000 ,
b11001010100010000 +
b1111111001001001111100000 *
b101011001001101 )
b11000111000010110 1
b1110010001100011 (
b10010001011 0
b100001111001 '
b110111010101110 /
b11111100011110 &
b11001100000100 .
b1111101010101 %
b111110101010 -
0$
b10 2
b101100100000000000000000000000000001101111100010000001101101010 3
1!
#1295000
0!
#1300000
b10110000100110000010110111111011001000000000000000000000000 3
b1100101101110010110000 "
b1100101101110010110000 ,
b1111111100010100011110000 +
b1111111001110101000101101 *
b11111010101 -
b11 2
1!
#1305000
0!
#1310000
1#
b1100010000010110100000 "
b1100010000010110100000 ,
b1111110110001001100011101 +
b1111111010100000001111010 *
b1111101010 -
b100 2
b101101011000000000000000000000000000101100001001100000101101111 3
1!
#1315000
0!
#1320000
0#
b1110100011010100001110110000011010110000000000000000000000 3
b1011000001100010111101 "
b1011000001100010111101 ,
b1111110000101001110010111 +
b1111111011001011011000111 *
b1000111110101 -
b101 2
1!
#1325000
0!
#1330000
b1001000110110001010100 "
b1001000110110001010100 ,
b1111101011110101001011110 +
b1111111011110110100010100 *
b100011111010 -
b110 2
b101111010000000000000000000000000011101000110101000011101100 3
1!
#1335000
0!
#1340000
b100111001011111000100110100001011110100000000000000000000 3
b110100101011010110010 "
b110100101011010110010 ,
b1111100111101011101110010 +
b1111111100100001101100001 *
b10001111101 -
b111 2
1!
#1345000
0!
#1350000
1#
b11100010111000100100 "
b11100010111000100100 ,
b1111100100001101011010011 +
b1111111101001100110101110 *
b1000111110 -
b1000 2
b11100011100000000000000000000000001001110010111110001001101 3
1!
#1355000
0!
#1360000
0#
b11010010111000010011010111000111000111000000000000000000 3
b100100011110111 "
b100100011110111 ,
b1111100001011010010000001 +
b1111111101110111111111011 *
b1000100011111 -
b1001 2
1!
#1365000
0!
#1370000
1#
b1111100001111110101111000 "
b1111100001111110101111000 ,
b1111011111010010001111100 +
b1111111110100011001001000 *
b100010001111 -
b1010 2
b101001001001001000000000000000000000000110100101110000100110101 3
1!
#1375000
0!
#1380000
0#
b1011101110010001101011110010010010010010000000000000000 3
b1111000001010000111110100 "
b1111000001010000111110100 ,
b1111011101110101011000100 +
b1111111111001110010010101 *
b1010001000111 -
b1011 2
1!
#1385000
0!
#1390000
1#
b1110011111000110010111000 "
b1110011111000110010111000 ,
b1111011101000011101011001 +
b1111111111111001011100010 *
b101000100011 -
b1100 2
b110110110110110110000000000000000000000010111011100100011010111 3
1!
#1395000
0!
#1400000
0#
b111001100101100101111000101101101101101100000000000000 3
b1101111100001010000010001 "
b1101111100001010000010001 ,
b1111011100111101000111011 +
b100100100101111 *
b1010100010001 -
b1101 2
1!
#1405000
0!
#1410000
b1101011001000111001001100 "
b1101011001000111001001100 ,
b1111011101100001101101010 +
b1001111101111100 *
b101010001000 -
b1110 2
b1110110110110110100000000000000000000001110011001011001011110 3
1!
#1415000
0!
#1420000
b10010101011101011100010011101101101101101000000000000 3
b1100110110101000110110110 "
b1100110110101000110110110 ,
b1111011110110001011100110 +
b1111010111001001 *
b10101000100 -
b1111 2
1!
#1425000
0!
#1430000
b1100010101011010010011100 "
b1100010101011010010011100 ,
b1111100000101100010101111 +
b10100110000010110 *
b1010100010 -
b0 2
b110100110110110110111000000000000000000000100101010111010111000 3
1!
#1435000
0!
#1440000
b1101111111001111001001101001101101101101110000000000 3
b1011110110000110101001011 "
b1011110110000110101001011 ,
b1111100011010010011000101 +
b11010001001100011 *
b101010001 -
1$
b1 2
1!
#1445000
0!
#1450000
b1011011001011001000010000 "
b1011011001011001000010000 ,
b1111100110100011100101000 +
b11111100010110000 *
b1111111111110010001100011 )
b10000000101000 1
b10010001011 (
b1110011000110101 0
b110111010101110 '
b111001111100110 /
b11001100000100 &
b111111100 .
b101010001 %
b10101000 -
0$
b10 2
b10111010110110110110010000000000000000000011011111110011110010 3
1!
#1455000
0!
#1460000
b101100000010100010110101110101101101101100100000000 3
b1010111111111100100111000 "
b1010111111111100100111000 ,
b1111101010011111111011000 +
b11101110100010011 *
b1010100 -
b11 2
1!
#1465000
0!
#1470000
1#
b1010101010011100100010000 "
b1010101010011100100010000 ,
b1111101110001110011101011 +
b11100000101110110 *
b101010 -
b100 2
b111110011110110110110101100000000000000000001011000000101000101 3
1!
#1475000
0!
#1480000
0#
b11101000001111001110111100111101101101101011000000 3
b1010011000101010111111011 "
b1010011000101010111111011 ,
b1111110001101111001100001 +
b11010010111011001 *
b1000000010101 -
b101 2
1!
#1485000
0!
#1490000
1#
b1010001010011010001011100 "
b1010001010011010001011100 ,
b1111110101000010000111010 +
b11000101000111100 *
b100000001010 -
b110 2
b111000101000110110110111101000000000000000000111010000011110011 3
1!
#1495000
0!
#1500000
0#
b1001110000100010100110001010001101101101111010000 3
b1001111111011100010010110 "
b1001111111011100010010110 ,
b1111111000000111001110110 +
b10110111010011111 *
b1010000000101 -
b111 2
1!
#1505000
0!
#1510000
1#
b1001110111100011100001100 "
b1001110111100011100001100 ,
b1111111010111110100010101 +
b10101001100000010 *
b101000000010 -
b1000 2
b1010011110010110110110001110000000000000000010011100001000101 3
1!
#1515000
0!
#1520000
0#
b110100100011001111010100111100101101101100011100 3
b1001110010100010000100001 "
b1001110010100010000100001 ,
b1111111101101000000010111 +
b10011011101100101 *
b1010100000001 -
b1001 2
1!
#1525000
0!
#1530000
1#
b1001110000001010000111000 "
b1001110000001010000111000 ,
b11101111100 +
b10001101111001000 *
b101010000000 -
b1010 2
b101111101000101110110110100100100000000000000001101001000110011 3
1!
#1535000
0!
#1540000
b10111011001010100011111010001011101101101001001 3
b1001110000001101110110100 "
b1001110000001101110110100 ,
b10010001101000100 +
b10000000000101011 *
b1010101000000 -
b1011 2
1!
#1545000
0!
#1550000
b1001110010011111011111000 "
b1001110010011111011111000 ,
b100010001101101111 +
b1110010010001110 *
b1101010100000 -
b1100 2
b100001110011100110110111011011000000000000000101110110010101 3
1!
#1555000
0!
#1560000
0#
b101000000000000001110011010111111001000011100111001101101110110 3
b1001110110110001001100111 "
b1001110110110001001100111 ,
b110000011111111101 +
b1100100011110001 *
b1110101010000 -
b1101 2
1!
#1565000
0!
#1570000
1#
b1001111100110101001100100 "
b1001111100110101001100100 ,
b111101000011101110 +
b1010110101010100 *
b111010101000 -
b1110 2
b101011000100101001010110110011011010000000000000011100110101111 3
1!
#1575000
0!
#1580000
0#
b101110000000000000100101011110000010110001001010010101101100110 3
b1010000100011101101010010 "
b1010000100011101101010010 ,
b1000111111001000010 +
b1001000110110111 *
b1011101010100 -
b1111 2
1!
#1585000
0!
#1590000
b1010001101011100110010100 "
b1010001101011100110010100 ,
b1010000111111111001 +
b111011000011010 *
b101110101010 -
b0 2
b111010011011110111110110101011011100000000000001001010111100 3
1!
#1595000
0!
#1600000
b101100100000000000011011111000100001110100110111101111101101010 3
b1010010111100100110001101 "
b1010010111100100110001101 ,
b1011000011000010011 +
b101101001111101 *
b10111010101 -
1$
b1 2
1!
#1605000
0!
#1610000
1#
b1010100010100111110100000 "
b1010100010100111110100000 ,
b1011110000010010000 +
b11111011100000 *
b10010001011 )
b11110000110101010 1
b1110011000110101 (
b10100111000 0
b111001111100110 '
b111011111000 /
b111111100 &
b10010000100 .
b10111010101 %
b1011101010 -
0$
b10 2
b10011101011000110000110111111011001000000000000110111110001 3
1!
#1615000
0!
